{
    "extends": "tslint-config-airbnb",
    "rules": {
        "indent": [
            true,
            "spaces",
            4
        ],
        "ter-indent": [
            true,
            4
        ]
    }
}
